{"records": [{"utilizacao": "Ocasional/Ped.", "localizacao1": "Boa Viagem, Av.", "localizacao2": "Em frente ao parque Dona Lind\u00fa", "funcionamento": "E/Git", "sinalsonoro": "N", "semaforo": "1", "sinalizadorciclista": "N", "Longitude": "-34.903798", "Latitude": "-8.142323", "_id": 1}, {"utilizacao": "Veicular", "localizacao1": "Conselheiro Aguiar, Av.", "localizacao2": "Thom\u00e9 Gibson, Rua", "funcionamento": "E/Git", "sinalsonoro": "N", "semaforo": "2", "sinalizadorciclista": "N", "Longitude": "-34.885883", "Latitude": "-8.099068", "_id": 2}, {"utilizacao": "Ocasional/Ped.", "localizacao1": "Boa Viagem, Av.", "localizacao2": "Fran\u00e7a Pereira, Rua", "funcionamento": "E/Git", "sinalsonoro": "N", "semaforo": "3", "sinalizadorciclista": "S", "Longitude": "-34.887726", "Latitude": "-8.106806", "_id": 3}, {"utilizacao": "Ocasional/Ped.", "localizacao1": "Boa Viagem, Av.", "localizacao2": "Bar\u00e3o de Souza Le\u00e3o, Rua", "funcionamento": "E/Git", "sinalsonoro": "N", "semaforo": "4", "sinalizadorciclista": "S", "Longitude": "-34.899990", "Latitude": "-8.132230", "_id": 4}, {"utilizacao": "Veicular", "localizacao1": "Conselheiro Aguiar, Av.", "localizacao2": "Artur Muniz, Rua", "funcionamento": "E/Git", "sinalsonoro": "N", "semaforo": "5", "sinalizadorciclista": "N", "Longitude": "-34.888228", "Latitude": "-8.104310", "_id": 5}, {"utilizacao": "Veicular", "localizacao1": "Conselheiro Aguiar, Av.", "localizacao2": "Ant\u00f4nio Falc\u00e3o, Rua", "funcionamento": "E/Git", "sinalsonoro": "N", "semaforo": "6", "sinalizadorciclista": "N", "Longitude": "-34.894686", "Latitude": "-8.116171", "_id": 6}, {"utilizacao": "Veicular", "localizacao1": "Mascarenhas de Morais, Av.", "localizacao2": "Jamaica, Rua", "funcionamento": "E/Git", "sinalsonoro": "N", "semaforo": "7", "sinalizadorciclista": "N", "Longitude": "-34.911660", "Latitude": "-8.107621", "_id": 7}, {"utilizacao": "Veicular", "localizacao1": "Caxang\u00e1, Av.", "localizacao2": "Bom Pastor, Rua do", "funcionamento": "E/Git", "sinalsonoro": "N", "semaforo": "8", "sinalizadorciclista": "N", "Longitude": "-34.938494", "Latitude": "-8.040820", "_id": 8}, {"utilizacao": "Pedestre", "localizacao1": "Cruz Cabug\u00e1, Av.", "localizacao2": "Est BRT Casa da Miseric\u00f3rdia", "funcionamento": "E/Git", "sinalsonoro": "N", "semaforo": "9", "sinalizadorciclista": "N", "Longitude": "-34.874595", "Latitude": "-8.044224", "_id": 9}, {"utilizacao": "Veicular", "localizacao1": "II Perimetral", "localizacao2": "Parnamirim, Av.", "funcionamento": "E/Git", "sinalsonoro": "N", "semaforo": "10", "sinalizadorciclista": "N", "Longitude": "-34.908303", "Latitude": "-8.034731", "_id": 10}, {"utilizacao": "Veicular", "localizacao1": "Conselheiro Portela, Rua", "localizacao2": "48, Rua", "funcionamento": "E/Git", "sinalsonoro": "N", "semaforo": "11", "sinalizadorciclista": "N", "Longitude": "-34.893810", "Latitude": "-8.041458", "_id": 11}, {"utilizacao": "Veic.C/Ped.Paral.", "localizacao1": "Bar\u00e3o da Vit\u00f3ria, Rua", "localizacao2": "Floriano Peixoto, Rua", "funcionamento": "E", "sinalsonoro": "N", "semaforo": "12", "sinalizadorciclista": "N", "Longitude": "-34.882931", "Latitude": "-8.067321", "_id": 12}, {"utilizacao": "Veic.C/Ped.Ocas.", "localizacao1": "Sol, Rua do", "localizacao2": "Nova, Rua", "funcionamento": "E/Git", "sinalsonoro": "S", "semaforo": "13", "sinalizadorciclista": "N", "Longitude": "-34.880922", "Latitude": "-8.063874", "_id": 13}, {"utilizacao": "Veic.C/Ped.Paral.", "localizacao1": "Sol, Rua do", "localizacao2": "Guararapes, Av.", "funcionamento": "E/Git", "sinalsonoro": "N", "semaforo": "14", "sinalizadorciclista": "N", "Longitude": "-34.880416", "Latitude": "-8.062706", "_id": 14}, {"utilizacao": "Veic.C/Ped.Paral.", "localizacao1": "Dantas Barreto, Av.", "localizacao2": "Guararapes, Av.", "funcionamento": "E/Git", "sinalsonoro": "N", "semaforo": "15", "sinalizadorciclista": "N", "Longitude": "-34.878518", "Latitude": "-8.063788", "_id": 15}, {"utilizacao": "Veicular", "localizacao1": "Recife, Av.", "localizacao2": "S\u00e3o Nicolau, Rua", "funcionamento": "E/Git", "sinalsonoro": "N", "semaforo": "16", "sinalizadorciclista": "N", "Longitude": "-34.927227", "Latitude": "-8.106969", "_id": 16}, {"utilizacao": "Pedestre", "localizacao1": "Nossa Senhora do Carmo, Av.", "localizacao2": "Duque de Caxias, Rua", "funcionamento": "E/Git", "sinalsonoro": "S", "semaforo": "17", "sinalizadorciclista": "N", "Longitude": "-34.877317", "Latitude": "-8.066200", "_id": 17}, {"utilizacao": "Veicular", "localizacao1": "Imperador, Rua do", "localizacao2": "1\u00ba de Mar\u00e7o, Rua", "funcionamento": "E/Git", "sinalsonoro": "N", "semaforo": "18", "sinalizadorciclista": "N", "Longitude": "-34.876823", "Latitude": "-8.064191", "_id": 18}, {"utilizacao": "Veicular", "localizacao1": "Rio Branco, Av.", "localizacao2": "Apolo, Cais do", "funcionamento": "E/Git", "sinalsonoro": "N", "semaforo": "19", "sinalizadorciclista": "N", "Longitude": "-34.873830", "Latitude": "-8.062391", "_id": 19}, {"utilizacao": "Veicular", "localizacao1": "Marquez de Olinda, Av.", "localizacao2": "Madre de Deus, Rua", "funcionamento": "E/Git", "sinalsonoro": "N", "semaforo": "20", "sinalizadorciclista": "N", "Longitude": "-34.873672", "Latitude": "-8.063611", "_id": 20}, {"utilizacao": "Veicular", "localizacao1": "Hora, Rua da", "localizacao2": "48, Rua", "funcionamento": "E/Git", "sinalsonoro": "N", "semaforo": "21", "sinalizadorciclista": "N", "Longitude": "-34.891930", "Latitude": "-8.042905", "_id": 21}, {"utilizacao": "Veic.C/Ped.Paral.", "localizacao1": "Princesa Isabel, Rua", "localizacao2": "Aurora, Rua da", "funcionamento": "E/Git", "sinalsonoro": "N", "semaforo": "22", "sinalizadorciclista": "N", "Longitude": "-34.879984", "Latitude": "-8.059518", "_id": 22}, {"utilizacao": "Veic.C/Ped.", "localizacao1": "Conde da Boa Vista, Av.", "localizacao2": "Hosp\u00edcio, Rua do", "funcionamento": "E/Git", "sinalsonoro": "S", "semaforo": "23", "sinalizadorciclista": "N", "Longitude": "-34.884050", "Latitude": "-8.060773", "_id": 23}, {"utilizacao": "Veic.C/Ped.", "localizacao1": "Conde da Boa Vista, Av.", "localizacao2": "Gerv\u00e1sio Pires, Rua", "funcionamento": "E/Git", "sinalsonoro": "S", "semaforo": "24", "sinalizadorciclista": "N", "Longitude": "-34.886443", "Latitude": "-8.059567", "_id": 24}, {"utilizacao": "Veic.C/Ped.", "localizacao1": "Conde da Boa Vista, Av.", "localizacao2": "Soledade, Rua da", "funcionamento": "E/Git", "sinalsonoro": "S", "semaforo": "25", "sinalizadorciclista": "N", "Longitude": "-34.889962", "Latitude": "-8.057554", "_id": 25}, {"utilizacao": "Veic.C/Ped.Ocas.", "localizacao1": "Bel\u00e9m, Estrada de", "localizacao2": "Odorico Mendes, Rua", "funcionamento": "E", "sinalsonoro": "N", "semaforo": "26", "sinalizadorciclista": "N", "Longitude": "-34.881324", "Latitude": "-8.032111", "_id": 26}, {"utilizacao": "Veicular", "localizacao1": "Conde da Boa Vista, Av.", "localizacao2": "Dom Bosco, Rua", "funcionamento": "E/Git", "sinalsonoro": "N", "semaforo": "27", "sinalizadorciclista": "N", "Longitude": "-34.895380", "Latitude": "-8.055998", "_id": 27}, {"utilizacao": "Veicular", "localizacao1": "Manoel Borba, Av.", "localizacao2": "Dom Bosco, Rua", "funcionamento": "E/Git", "sinalsonoro": "N", "semaforo": "28", "sinalizadorciclista": "N", "Longitude": "-34.894050", "Latitude": "-8.059392", "_id": 28}, {"utilizacao": "Veicular", "localizacao1": "Manoel Borba, Av.", "localizacao2": "Jos\u00e9 de Alencar, Rua", "funcionamento": "E/Git", "sinalsonoro": "N", "semaforo": "29", "sinalizadorciclista": "S", "Longitude": "-34.888369", "Latitude": "-8.060502", "_id": 29}, {"utilizacao": "Veicular", "localizacao1": "13 de Maio, Rua", "localizacao2": "Dos Palmares, Rua.", "funcionamento": "E/Git", "sinalsonoro": "N", "semaforo": "30", "sinalizadorciclista": "S", "Longitude": "-34.883697", "Latitude": "-8.052560", "_id": 30}, {"utilizacao": "Veic.C/Ped.Paral.", "localizacao1": "Hosp\u00edcio, Rua do", "localizacao2": "Princesa Isabel, Rua", "funcionamento": "E/Git", "sinalsonoro": "N", "semaforo": "31", "sinalizadorciclista": "N", "Longitude": "-34.882988", "Latitude": "-8.057835", "_id": 31}, {"utilizacao": "Veic.C/Ped.", "localizacao1": "Hosp\u00edcio, Rua do", "localizacao2": "Visc. De Suassuna, AV.", "funcionamento": "E/Git", "sinalsonoro": "S", "semaforo": "32", "sinalizadorciclista": "N", "Longitude": "-34.882265", "Latitude": "-8.055068", "_id": 32}, {"utilizacao": "Veicular", "localizacao1": "Hosp\u00edcio, Rua do", "localizacao2": "Matriz, Rua da", "funcionamento": "E/Git", "sinalsonoro": "N", "semaforo": "33", "sinalizadorciclista": "N", "Longitude": "-34.885292", "Latitude": "-8.062624", "_id": 33}, {"utilizacao": "Veicular", "localizacao1": "Norte Miguel Arraes de Alencar, Av.", "localizacao2": "Cruz Cabug\u00e1. Av.", "funcionamento": "E/Git", "sinalsonoro": "N", "semaforo": "34", "sinalizadorciclista": "N", "Longitude": "-34.876962", "Latitude": "-8.047535", "_id": 34}, {"utilizacao": "Veicular", "localizacao1": "Dantas Barreto, Av.", "localizacao2": "Imperial, Rua", "funcionamento": "E/Git", "sinalsonoro": "N", "semaforo": "35", "sinalizadorciclista": "N", "Longitude": "-34.884146", "Latitude": "-8.072249", "_id": 35}, {"utilizacao": "Veicular", "localizacao1": "Norte Miguel Arraes de Alencar, Av.", "localizacao2": "13 de Maio, Rua", "funcionamento": "E/Git", "sinalsonoro": "N", "semaforo": "36", "sinalizadorciclista": "N", "Longitude": "-34.879089", "Latitude": "-8.045910", "_id": 36}, {"utilizacao": "Veicular", "localizacao1": "Agamenon Magalh\u00e3es, Av. Gov.", "localizacao2": "Rui Barbosa, Av.", "funcionamento": "E/Git", "sinalsonoro": "N", "semaforo": "37", "sinalizadorciclista": "N", "Longitude": "-34.895758", "Latitude": "-8.052422", "_id": 37}, {"utilizacao": "Veic.C/La\u00e7o Det.", "localizacao1": "Martin Luther King, Av.", "localizacao2": "Forum Rodolfo Aureliano, ao lado do", "funcionamento": "E/Git", "sinalsonoro": "N", "semaforo": "38", "sinalizadorciclista": "N", "Longitude": "-34.895270", "Latitude": "-8.069418", "_id": 38}, {"utilizacao": "Veicular", "localizacao1": "Motocolomb\u00f3, Rua", "localizacao2": "Augusto Wanderley, Rua", "funcionamento": "E/Git", "sinalsonoro": "N", "semaforo": "39", "sinalizadorciclista": "N", "Longitude": "-34.906625", "Latitude": "-8.082688", "_id": 39}, {"utilizacao": "Veic.C/Ped.", "localizacao1": "Derby, Pra\u00e7a do", "localizacao2": "Jenner de Souza, Rua", "funcionamento": "E/Git", "sinalsonoro": "N", "semaforo": "40", "sinalizadorciclista": "N", "Longitude": "-34.900077", "Latitude": "-8.057073", "_id": 40}, {"utilizacao": "Veicular", "localizacao1": "Pr\u00edncipe, Rua do", "localizacao2": "Gerv\u00e1sio Pires, Rua", "funcionamento": "E/Git", "sinalsonoro": "N", "semaforo": "41", "sinalizadorciclista": "N", "Longitude": "-34.885062", "Latitude": "-8.057352", "_id": 41}, {"utilizacao": "Veic.C/Ped.", "localizacao1": "Beberibe, Av.", "localizacao2": "Bel\u00e9m, Estrada de", "funcionamento": "E/Git", "sinalsonoro": "N", "semaforo": "42", "sinalizadorciclista": "N", "Longitude": "-34.890996", "Latitude": "-8.037235", "_id": 42}, {"utilizacao": "Veicular", "localizacao1": "Norte Miguel Arraes de Alencar, Av.", "localizacao2": "Jo\u00e3o de Barros, Av.", "funcionamento": "E/Git", "sinalsonoro": "N", "semaforo": "43", "sinalizadorciclista": "N", "Longitude": "-34.892000", "Latitude": "-8.038574", "_id": 43}, {"utilizacao": "Veicular", "localizacao1": "Jos\u00e9 Rufino, Av. Dr.", "localizacao2": "Ipojuca, Rua", "funcionamento": "E", "sinalsonoro": "N", "semaforo": "44", "sinalizadorciclista": "N", "Longitude": "-34.936071", "Latitude": "-8.091724", "_id": 44}, {"utilizacao": "Veicular", "localizacao1": "Norte Miguel Arraes de Alencar, Av.", "localizacao2": "Fernando Cesar, Rua", "funcionamento": "E/Git", "sinalsonoro": "N", "semaforo": "45", "sinalizadorciclista": "N", "Longitude": "-34.894343", "Latitude": "-8.037027", "_id": 45}, {"utilizacao": "Veicular", "localizacao1": "Conselheiro Rosa e Silva, Av.", "localizacao2": "Am\u00e9lia, Rua", "funcionamento": "E/Git", "sinalsonoro": "N", "semaforo": "46", "sinalizadorciclista": "N", "Longitude": "-34.897044", "Latitude": "-8.045446", "_id": 46}, {"utilizacao": "Veicular", "localizacao1": "Conselheiro Rosa e Silva, Av.", "localizacao2": "Santos Dumont, Av.", "funcionamento": "E/Git", "sinalsonoro": "N", "semaforo": "47", "sinalizadorciclista": "N", "Longitude": "-34.899408", "Latitude": "-8.039546", "_id": 47}, {"utilizacao": "Veicular", "localizacao1": "Rui Barbosa, Av.", "localizacao2": "Am\u00e9lia, Rua", "funcionamento": "E/Git", "sinalsonoro": "N", "semaforo": "48", "sinalizadorciclista": "N", "Longitude": "-34.902060", "Latitude": "-8.045144", "_id": 48}, {"utilizacao": "Veicular", "localizacao1": "Agamenon Magalh\u00e3es, Av. Gov.", "localizacao2": "Odorico Mendes, Rua", "funcionamento": "E/Git", "sinalsonoro": "N", "semaforo": "49", "sinalizadorciclista": "N", "Longitude": "-34.878830", "Latitude": "-8.039799", "_id": 49}, {"utilizacao": "Veic.C/Ped.", "localizacao1": "Jos\u00e9 Os\u00f3rio, Rua", "localizacao2": "Visconde de Albuquerque, Rua", "funcionamento": "E/Git", "sinalsonoro": "N", "semaforo": "50", "sinalizadorciclista": "N", "Longitude": "-34.906710", "Latitude": "-8.053295", "_id": 50}], "_links": {"start": "/api/action/datastore_search?limit=50&resource_id=ab6343e9-c3f2-4d62-9554-5778f9f33738", "next": "/api/action/datastore_search?offset=50&limit=50&resource_id=ab6343e9-c3f2-4d62-9554-5778f9f33738"}, "limit": 50, "total": 655}